aggregates top N intensities — aggregateTopNIntensities • prolfqua
…
#> Column added : nr_peptide_Id_IN_protein_Id
config <- dd$config
res <- dd$data
ranked <- rankPrecursorsByIntensity(res,config)

#> Joining, by = c("protein_Id", "peptide_Id")
#> Columns added : srm_meanInt srm_meanIntRank
ranked %>% dplyr::select(c(config$table$hierarchyKeys(),
"srm_meanInt"  ,"srm_meanIntRank")) %>%
distinct() %>%
arrange(!!!syms(c(config$table$hkeysDepth(),"srm_meanIntRank")))

#> # A tibble: 1,289 x 4
#>    protein_Id        peptide_Id      srm_meanInt srm_meanIntRank
#>    <chr>             <chr>                 <dbl>           <int>
#>  1 CON__P01030~9~NA  ILSLAQDQVGGSAEK    10803230               1
#>  2 CON__P01030~9~NA  LLLFSPSVVR          6566270               2
#>  3 CON__P01030~9~NA  AELADQAASWLTR       5877025               3
#>  4 CON__P02769~18~NA KVPQVSTPTLVEVSR  2948500000               1
#>  5 CON__P02769~18~NA HLVDEPQNLIK      2050275000               2
#>  6 CON__P02769~18~NA LVNELTEFAK       1884675000               3
#>  7 CON__P02769~18~NA FKDLGEEHFK       1118469000               4
#>  8 CON__P02769~18~NA LGEYGFQNALIVR     899119500               5
#>  9 CON__P02769~18~NA YLYEIAR           879368000               6
#> 10 CON__P02769~18~NA TVMENFVAFVDK      781287500               7
#> # ... with 1,279 more rows
…
