Benchmark R6 class — Benchmark • prolfqua
…
#> [1] "all"                     "dilution_(4.5/3)_1.5"   
#> [3] "dilution_(6/4.5)_1.3(3)" "dilution_(7.5/6)_1.25"  
#> [5] "dilution_(9/7.5)_1.2"   
xb <- dplyr::filter(bb, contrast ==  "dilution_(4.5/3)_1.5")
max(xb$TPR)

#> [1] 1
max(xb$TP_hits)/ max(xb$T_)

#> [1] 1
brms_benchmark$get_confusion_summaries()

#> # A tibble: 129,874 x 17
#>    scorecol TP    what      F_    T_     R   FDP TP_hits FN_hits FP_hits TN_hits
#>       <dbl> <lgl> <chr>  <int> <int> <int> <dbl>   <int>   <int>   <int>   <int>
#>  1     2.94 TRUE  estim~ 13845  2393     1 0           1    2392       0   13845
#>  2     2.30 TRUE  estim~ 13845  2393     2 0           2    2391       0   13845
#>  3     2.10 TRUE  estim~ 13845  2393     3 0           3    2390       0   13845
#>  4     1.87 FALSE estim~ 13845  2393     4 0.25        3    2390       1   13844
#>  5     1.70 TRUE  estim~ 13845  2393     5 0.2         4    2389       1   13844
#>  6     1.63 FALSE estim~ 13845  2393     6 0.333       4    2389       2   13843
#>  7     1.60 TRUE  estim~ 13845  2393     7 0.286       5    2388       2   13843
#>  8     1.51 TRUE  estim~ 13845  2393     8 0.25        6    2387       2   13843
#>  9     1.50 TRUE  estim~ 13845  2393     9 0.222       7    2386       2   13843
#> 10     1.45 FALSE estim~ 13845  2393    10 0.3         7    2386       3   13842
#> # ... with 129,864 more rows, and 6 more variables: FPR <dbl>, TPR <dbl>,
#> #   ACC <dbl>, FDP_ <dbl>, model_name <chr>, contrast <chr>
…
