compute contrasts with data imputation (directly from data) — ContrastsSimpleImpute • prolfqua
…
bb <- tmp$get_contrasts()
#> completing cases
#> dilution.b-a=dilution.b - dilution.a
#> dilution.c-e=dilution.c - dilution.b
#> completing cases
#> Warning: NaNs produced
tmp$get_contrast_sides()
#> # A tibble: 2 × 3
#> # Groups:   contrast [2]
#>   contrast     group_1    group_2   
#>   <chr>        <chr>      <chr>     
#> 1 dilution.b-a dilution.b dilution.a
#> 2 dilution.c-e dilution.c dilution.b
tmp$to_wide()
#> # A tibble: 1,289 × 8
#>    protein_Id      peptide_Id `diff.dilution…` `diff.dilution…` `p.value.dilut…`
#>    <chr>           <chr>                 <dbl>            <dbl>            <dbl>
#>  1 CON__P01030~9~… AELADQAAS…        -0.664             -0.679             0.492
#>  2 CON__P01030~9~… ILSLAQDQV…        -0.0557            -0.125             0.863
#>  3 CON__P01030~9~… LLLFSPSVVR        -0.0427             0.0605            0.842
#>  4 CON__P02769~18… AEFVEVTK          -0.0164            -0.0269            0.944
#>  5 CON__P02769~18… DDPHACYST…         0.0185            -0.151             0.788
#>  6 CON__P02769~18… DDPHACYST…        -0.0325            -0.0119            0.957
#>  7 CON__P02769~18… ECCHGDLLE…         0.0559             0.165             0.750
#>  8 CON__P02769~18… ETYGDMADC…        -0.152             -0.406             0.603
#>  9 CON__P02769~18… EYEATLEEC…        -0.171             -0.282             0.801
#> 10 CON__P02769~18… FKDLGEEHFK         0.000881          -0.388             0.997
#> # … with 1,279 more rows, and 3 more variables: `p.value.dilution.c-e` <dbl>,
#> #   `FDR.dilution.b-a` <dbl>, `FDR.dilution.c-e` <dbl>
…
