ROPECA reproducibility-optimization method — ContrastsROPECA • prolfqua
…
#> determine linear functions:
#> compute contrasts:
#> computing contrasts.
#> Joining, by = c("contrast", "protein_Id", "peptide_Id")
#> [1] 774  16
 contrM <- prolfqua::ContrastsModerated$new(contr)
 dim(contrM$get_contrasts())

#> [1] 774  16
#ContrastsROPECA$debug("get_contrasts")
 contrast <- prolfqua::ContrastsROPECA$new(contrM)
 contrast$get_contrasts()

#> # A tibble: 54 x 12
#> # Groups:   contrast [1]
#>    modelName protein_Id contrast     n estimate statistic c1_name     c1 c2_name
#>    <chr>     <chr>      <chr>    <int>    <dbl>     <dbl> <chr>    <dbl> <chr>  
#>  1 ROPECA    CON__P027~ dil.b_v~    33 -8.81e-4  -0.00401 diluti~  3.43  diluti~
#>  2 ROPECA    CON__P349~ dil.b_v~    13  1.16e-2   0.110   diluti~  2.78  diluti~
#>  3 ROPECA    sp|O15511~ dil.b_v~     4  5.30e-2   0.414   diluti~  0.893 diluti~
#>  4 ROPECA    sp|O43660~ dil.b_v~     7 -1.51e-2  -0.0472  diluti~ -1.03  diluti~
#>  5 ROPECA    sp|O95373~ dil.b_v~    26 -2.20e-2  -0.124   diluti~  1.07  diluti~
#>  6 ROPECA    sp|P00505~ dil.b_v~    12  5.25e-2   0.202   diluti~  0.746 diluti~
#>  7 ROPECA    sp|P01889~ dil.b_v~     8 -1.36e-1  -0.737   diluti~  0.239 diluti~
#>  8 ROPECA    sp|P02924~ dil.b_v~     6 -7.36e-1  -3.79    diluti~ -1.78  diluti~
#>  9 ROPECA    sp|P07951~ dil.b_v~    21 -1.07e-2  -0.112   diluti~  0.760 diluti~
#> 10 ROPECA    sp|P08238~ dil.b_v~    41 -1.17e-2  -0.120   diluti~  4.34  diluti~
#> # ... with 44 more rows, and 3 more variables: c2 <dbl>,
#> #   beta.based.significance <dbl>, FDR.beta.based.significance <dbl>
…
