Estimate contrasts using Wald Test — Contrasts • prolfqua
…
#> FALSE  TRUE 
#>    79    83 
#> 
 Contr <- c("dil.a_vs_b" = "dilution.a - dilution.b",
    "dil.e_vs_b" = "dilution.e - dilution.b" )
#Contrasts$debug("get_contrasts")
contrastX <- prolfqua::Contrasts$new(mod, Contr)
contrastX$get_contrasts()
#> determine linear functions:
#> compute contrasts:
#> computing contrasts.
#> Warning: Model is rank deficient!
#> Warning: Model is rank deficient!
#> Joining, by = c("protein_Id", "contrast")
#> # A tibble: 320 × 13
#> # Groups:   contrast [2]
#>    model…¹ prote…² contr…³    diff     FDR std.e…⁴    df stati…⁵ conf.…⁶ conf.…⁷
#>    <chr>   <chr>   <chr>     <dbl>   <dbl>   <dbl> <dbl>   <dbl>   <dbl>   <dbl>
#>  1 WaldTe… sp|P21… dil.a_… -0.0975 5.74e-1  0.0559 263.   -1.74  -0.208   0.0127
#>  2 WaldTe… sp|P21… dil.e_…  0.0291 8.49e-1  0.0561 263.    0.518 -0.0814  0.140 
#>  3 WaldTe… sp|Q9N… dil.a_…  0.305  5.91e-1  0.164   11.4   1.86  -0.0540  0.663 
#>  4 WaldTe… sp|Q9N… dil.e_…  0.336  3.10e-1  0.178   11.6   1.89  -0.0520  0.725 
#>  5 WaldTe… sp|O43… dil.a_… -0.0245 9.86e-1  0.127   12.3  -0.193 -0.300   0.252 
#>  6 WaldTe… sp|O43… dil.e_… -0.0228 9.09e-1  0.136   16.7  -0.167 -0.311   0.265 
#>  7 WaldTe… sp|P0A… dil.a_… -0.926  4.41e-2  0.274   18.0  -3.38  -1.50   -0.351 
#>  8 WaldTe… sp|P0A… dil.e_…  0.846  4.40e-3  0.204   18.0   4.16   0.418   1.27  
#>  9 WaldTe… sp|P0A… dil.a_… -0.997  1.01e-3  0.200   27.0  -4.99  -1.41   -0.587 
#> 10 WaldTe… sp|P0A… dil.e_…  0.790  2.94e-4  0.156   27.0   5.06   0.470   1.11  
#> # … with 310 more rows, 3 more variables: p.value <dbl>, sigma <dbl>,
#> #   avgAbd <dbl>, and abbreviated variable names ¹​modelName, ²​protein_Id,
#> #   ³​contrast, ⁴​std.error, ⁵​statistic, ⁶​conf.low, ⁷​conf.high
…
