plot contrasts — Contrasts_Plotter • LFQService
…
#> [1] "protein_Id"
mod <- build_model(
 pepIntensity,
 modelFunction,
 modelName = modelName,
 subject_Id = config$table$hkeysDepth())

#> boundary (singular) fit: see ?isSingular
#> Joining, by = "protein_Id"
 mod$get_coefficients()

#> # A tibble: 340 x 9
#> # Groups:   protein_Id [68]
#>    protein_Id isSingular nrcoef factor Estimate Std..Error     df t.value
#>    <chr>      <lgl>       <int> <chr>     <dbl>      <dbl>  <dbl>   <dbl>
#>  1 sp|P21589~ FALSE           5 (Inte~  0.883       0.358   15.3   2.47  
#>  2 sp|P21589~ FALSE           5 dilut~  0.0975      0.0559 263.    1.74  
#>  3 sp|P21589~ FALSE           5 dilut~  0.0700      0.0557 263.    1.26  
#>  4 sp|P21589~ FALSE           5 dilut~ -0.0232      0.0564 263.   -0.412 
#>  5 sp|P21589~ FALSE           5 dilut~  0.127       0.0557 263.    2.27  
#>  6 sp|O43660~ FALSE           5 (Inte~ -1.15        0.200    8.14 -5.74  
#>  7 sp|O43660~ FALSE           5 dilut~  0.0266      0.119   75.1   0.223 
#>  8 sp|O43660~ FALSE           5 dilut~ -0.0128      0.125   75.2  -0.102 
#>  9 sp|O43660~ FALSE           5 dilut~  0.0302      0.123   75.2   0.245 
#> 10 sp|O43660~ FALSE           5 dilut~  0.00359     0.129   75.7   0.0277
#> # ... with 330 more rows, and 1 more variable: Pr...t.. <dbl>
…
