holds results when contrasts are added. — ContrastsTable • prolfqua
…
csi <- ContrastsMissing$new(lfqdata, contrasts = Contrasts)
ctr <- csi$get_contrasts()
#> [1] "group_"
#> completing cases
#> aC=group_A - group_Ctrl
#> bC=group_A - group_Ctrl
#> aC=group_A - group_Ctrl
#> bC=group_A - group_Ctrl
#> aC=group_A - group_Ctrl
#> bC=group_A - group_Ctrl
csi$subject_Id
#> [1] "protein_Id" "peptide_Id"
xcx <- ContrastsTable$new(ctr, subject_Id = csi$subject_Id, modelName = "TableTest")
xcx$get_contrasts()
#> # A tibble: 56 × 21
#>    modelName protein_Id peptide_Id meanAbundanceImp_gro…¹ meanAbundanceImp_gro…²
#>    <chr>     <chr>      <chr>                       <dbl>                  <dbl>
#>  1 groupAve… 0EfVhX~00… ITLb4x1q                     18.0                   18.8
#>  2 groupAve… 0EfVhX~00… ahQLlQY7                     25.8                   21.0
#>  3 groupAve… 0EfVhX~00… dJkdz7so                     15.5                   17.6
#>  4 groupAve… 7cbcrd~57… D5dQ4nKk                     29.5                   17.2
#>  5 groupAve… 9VUkAq~47… eIC06D7g                     18.0                   27.3
#>  6 groupAve… BEJI92~52… HBkZvdhT                     16.8                   15.8
#>  7 groupAve… BEJI92~52… qQ1GK8Un                     23.8                   17.7
#>  8 groupAve… CGzoYe~21… mjHSHhoe                     24.3                   30.1
#>  9 groupAve… DoWup2~58… KVUnZ6oZ                     23.8                   19.4
#> 10 groupAve… Fl4JiV~86… GsUIOl6Q                     19.1                   17.4
#> # ℹ 46 more rows
#> # ℹ abbreviated names: ¹​meanAbundanceImp_group_1, ²​meanAbundanceImp_group_2
#> # ℹ 16 more variables: diff <dbl>, group_1_name <chr>, group_2_name <chr>,
#> #   contrast <chr>, avgAbd <dbl>, indic <dbl>, nrMeasured_group_1 <int>,
#> #   nrMeasured_group_2 <int>, df <int>, sigma <dbl>, std.error <dbl>,
#> #   statistic <dbl>, p.value <dbl>, conf.low <dbl>, conf.high <dbl>, FDR <dbl>
…
