Limma moderated contrasts — ContrastsModerated • prolfqua
…
 Contr <- c("dil.b_vs_a" = "dilution.a - dilution.b")
 contrast <- prolfqua::Contrasts$new(mod,
 Contr)
 contrast <- ContrastsModerated$new(contrast)
 bb <- contrast$get_contrasts()
#> determine linear functions:
#> compute contrasts:
#> computing contrasts.
#> Joining, by = c("contrast", "protein_Id")
 bb
#> # A tibble: 59 x 15
#>    modelName          contrast protein_Id     c1     c2 c1_name c2_name estimate
#>    <chr>              <chr>    <chr>       <dbl>  <dbl> <chr>   <chr>      <dbl>
#>  1 WaldTest_moderated dil.b_v~ sp|P21589~  0.883  0.981 diluti~ diluti~  -0.0975
#>  2 WaldTest_moderated dil.b_v~ sp|Q9NZM3~ -1.61  -1.91  diluti~ diluti~   0.305 
#>  3 WaldTest_moderated dil.b_v~ sp|P0A908~ -1.55  -0.553 diluti~ diluti~  -0.997 
#>  4 WaldTest_moderated dil.b_v~ sp|Q9Y3A5~ -0.130 -0.190 diluti~ diluti~   0.0601
#>  5 WaldTest_moderated dil.b_v~ sp|P07602~  1.05   0.976 diluti~ diluti~   0.0768
#>  6 WaldTest_moderated dil.b_v~ sp|Q07866~ -0.974 -1.03  diluti~ diluti~   0.0580
#>  7 WaldTest_moderated dil.b_v~ sp|P41252~ -0.146 -0.128 diluti~ diluti~  -0.0179
#>  8 WaldTest_moderated dil.b_v~ sp|P0A6L2~ -0.919 -0.422 diluti~ diluti~  -0.497 
#>  9 WaldTest_moderated dil.b_v~ sp|P50570~ -0.814 -0.898 diluti~ diluti~   0.0841
#> 10 WaldTest_moderated dil.b_v~ sp|Q03001~ -1.48  -1.52  diluti~ diluti~   0.0394
#> # ... with 49 more rows, and 7 more variables: statistic <dbl>, df <dbl>,
#> #   p.value <dbl>, conf.low <dbl>, conf.high <dbl>, sigma <dbl>, FDR <dbl>
…
