ContrastsInterface — ContrastsInterface • prolfqua
…
 Contr <- c("dil.a_vs_b" = "dilution.a - dilution.b",
    "dil.e_vs_b" = "dilution.e - dilution.b" )
contrastX <- prolfqua::Contrasts$new(mod, Contr)
contrastX$get_contrasts()
#> determine linear functions:
#> compute contrasts:
#> computing contrasts.
#> Warning: Model is rank deficient!
#> Warning: Model is rank deficient!
#> Joining, by = c("protein_Id", "contrast")
#> # A tibble: 320 × 13
#> # Groups:   contrast [2]
#>    modelName protein_Id       contrast    diff     FDR std.error    df statistic
#>    <chr>     <chr>            <chr>      <dbl>   <dbl>     <dbl> <dbl>     <dbl>
#>  1 WaldTest  sp|P21589|5NTD_… dil.a_v… -0.0975 5.74e-1    0.0559 263.     -1.74 
#>  2 WaldTest  sp|P21589|5NTD_… dil.e_v…  0.0291 8.49e-1    0.0561 263.      0.518
#>  3 WaldTest  sp|Q9NZM3|ITSN2… dil.a_v…  0.305  5.91e-1    0.164   11.4     1.86 
#>  4 WaldTest  sp|Q9NZM3|ITSN2… dil.e_v…  0.336  3.10e-1    0.178   11.6     1.89 
#>  5 WaldTest  sp|O43660|PLRG1… dil.a_v… -0.0245 9.86e-1    0.127   12.3    -0.193
#>  6 WaldTest  sp|O43660|PLRG1… dil.e_v… -0.0228 9.09e-1    0.136   16.7    -0.167
#>  7 WaldTest  sp|P0AG78|SUBI_… dil.a_v… -0.926  4.41e-2    0.274   18.0    -3.38 
#>  8 WaldTest  sp|P0AG78|SUBI_… dil.e_v…  0.846  4.40e-3    0.204   18.0     4.16 
#>  9 WaldTest  sp|P0A908|MIPA_… dil.a_v… -0.997  1.01e-3    0.200   27.0    -4.99 
#> 10 WaldTest  sp|P0A908|MIPA_… dil.e_v…  0.790  2.94e-4    0.156   27.0     5.06 
#> # … with 310 more rows, and 5 more variables: conf.low <dbl>, conf.high <dbl>,
#> #   p.value <dbl>, sigma <dbl>, avgAbd <dbl>
…
csi <- ContrastsSimpleImpute$new(lProt, contrasts = Contr)

csi$get_contrasts()
#> completing cases
#> dil.b_vs_a=dilution.a - dilution.b
#> dil.b_vs_a=dilution.a - dilution.b
#> Joining, by = c("protein_Id", "contrast")
#> completing cases
contrast$get_contrasts()
#> # A tibble: 58 × 13
#>    modelName       protein_Id contrast     diff std.error avgAbd statistic    df
#>    <chr>           <chr>      <chr>       <dbl>     <dbl>  <dbl>     <dbl> <dbl>
#>  1 WaldTest_moder… sp|P21589… dil.b_v… -0.0461     0.0466  1.18    -0.980   16.9
#>  2 WaldTest_moder… sp|Q9Y3A5… dil.b_v…  0.0139     0.0740 -0.739    0.193   16.9
#>  3 WaldTest_moder… sp|P01889… dil.b_v… -0.0245     0.0494  0.207   -0.495   16.9
#>  4 WaldTest_moder… sp|Q9Y2W2… dil.b_v… -0.199      0.234  -0.674   -0.903   16.9
#>  5 WaldTest_moder… sp|P07602… dil.b_v…  0.0896     0.0381  1.04     2.26    16.9
#>  6 WaldTest_moder… sp|P25789… dil.b_v…  0.0624     0.0409  1.05     1.48    16.9
#>  7 WaldTest_moder… sp|P04150… dil.b_v…  0.139      0.129  -1.62     1.13    16.9
#>  8 WaldTest_moder… sp|P41252… dil.b_v…  0.00120    0.0412 -0.127    0.0284  16.9
#>  9 WaldTest_moder… sp|P02924… dil.b_v… -0.768      0.152  -1.70    -5.34    16.9
#> 10 WaldTest_moder… sp|P50570… dil.b_v…  0.0534     0.0500 -0.962    1.07    16.9
#> # … with 48 more rows, and 5 more variables: p.value <dbl>, conf.low <dbl>,
#> #   conf.high <dbl>, sigma <dbl>, FDR <dbl>
…
