Compute interaction averages and impute data using mean of lowest 0.1 (default) — .missigness_impute_interactions • prolfqua
…
imputed <- fun("imputed")
missing <- fun("nrMeasured")

 meanArea <- fun("mean")
 print(sum(is.na(meanArea$mean.dilution.a)))
#> [1] 59
 #stopifnot(sum(is.na(meanArea$mean.dilution.a)) == 59)
 stopifnot(sum(is.na(imputed$mean.imp.dilution.a))==0)
tmp <- fun("allWide")
#> Joining, by = c("protein_Id", "peptide_Id", "isotope")
#> Joining, by = c("protein_Id", "peptide_Id", "isotope")
#> Joining, by = c("protein_Id", "peptide_Id", "isotope")
tmp
#> # A tibble: 1,108 × 23
#>    protein_Id    pepti…¹ isotope inter…² inter…³ inter…⁴ inter…⁵ inter…⁶ inter…⁷
#>    <chr>         <chr>   <chr>     <dbl>   <dbl>   <dbl>   <dbl>   <dbl>   <int>
#>  1 CON__P01030~… ILSLAQ… light    1.32e7  1.25e7  1.02e7  8.86e6  9.25e6       4
#>  2 CON__P02769~… AEFVEV… light    5.28e8  5.07e8  4.72e8  4.66e8  4.17e8       4
#>  3 CON__P02769~… DDPHAC… light    2.18e8  2.13e8  1.79e8  1.96e8  1.88e8       4
#>  4 CON__P02769~… DDPHAC… light    4.44e7  4.25e7  3.82e7  3.91e7  3.51e7       4
#>  5 CON__P02769~… ECCHGD… light    1.21e7  1.18e7  1.26e7  1.12e7  1.09e7       4
#>  6 CON__P02769~… ETYGDM… light    2.49e7  2.04e7  1.45e7  1.89e7  1.64e7       4
#>  7 CON__P02769~… EYEATL… light    2.69e7  2.27e7  1.76e7  2.33e7  1.84e7       4
#>  8 CON__P02769~… FKDLGE… light    1.27e9  1.21e9  9.19e8  1.07e9  1.12e9       4
#>  9 CON__P02769~… HLVDEP… light    2.20e9  2.11e9  1.96e9  2.04e9  1.94e9       4
#> 10 CON__P02769~… HPEYAV… light    5.44e7  6.22e7  5.45e7  5.65e7  5.44e7       4
#> # … with 1,098 more rows, 14 more variables:
#> #   interaction.nrMeasured.dilution.b <int>,
#> #   interaction.nrMeasured.dilution.c <int>,
#> #   interaction.nrMeasured.dilution.d <int>,
#> #   interaction.nrMeasured.dilution.e <int>,
#> #   interaction.nrReplicates.dilution.a <int>,
#> #   interaction.nrReplicates.dilution.b <int>, …
#> # ℹ Use `print(n = ...)` to see more rows, and `colnames()` to see all variable names
…
