removes measurments with less than percent=60 missing values in factor_level = 1 — filter_factor_levels_by_missing • prolfqua
…
#> completing cases
#> Joining, by = c("protein_Id", "peptide_Id", "modPeptide_Id", "precursor_Id")
data1 <-complete_cases(data, config)

#> completing cases
hierarchy_counts(res, config)

#> # A tibble: 1 x 5
#>   Isotope.Label protein_Id peptide_Id modPeptide_Id precursor_Id
#>   <chr>              <int>      <int>         <int>        <int>
#> 1 Light                 49        382           570          708
summarize_hierarchy(res,config) %>%
 dplyr::filter(!!sym(paste0(config$table$hierarchyKeys()[2],"_n")) > 1)

#> # A tibble: 39 x 5
#>    protein_Id        Isotope.Label_n peptide_Id_n modPeptide_Id_n precursor_Id_n
#>    <chr>                       <int>        <int>           <int>          <int>
#>  1 A0A075B6P5;P01615               1            3               5              7
#>  2 A0A087WSY6;P01624               1            3               6              7
#>  3 A0A0B4J1V0                      1            6              11             13
#>  4 A0A0C4DH25                      1            9               9             11
#>  5 A0A0J9YXX1                      1            3               4              4
#>  6 FGCZCont0141_P69~               1            8              14             21
#>  7 FGCZCont0174_P68~               1           10              12             14
#>  8 P00751                          1           21              25             29
#>  9 P01008                          1           17              25             35
#> 10 P01009                          1           34              56             82
#> # ... with 29 more rows
…
