Count distinct elements for each level of hierarchy per sample — hierarchy_counts_sample • prolfqua
…
#>    <chr>        <chr>           <int>      <int>
#>  1 light        A_V1               10         23
#>  2 light        A_V2               10         26
#>  3 light        A_V3               10         25
#>  4 light        A_V4               10         23
#>  5 light        B_V1                8         26
#>  6 light        B_V2                9         26
#>  7 light        B_V3               10         27
#>  8 light        B_V4               10         26
#>  9 light        Ctrl_V1            10         24
#> 10 light        Ctrl_V2            10         25
#> 11 light        Ctrl_V3             9         24
#> 12 light        Ctrl_V4            10         25
res("long")
#> # A tibble: 24 × 4
#> # Groups:   isotopeLabel [1]
#>    isotopeLabel sampleName key           nr
#>    <chr>        <chr>      <chr>      <int>
#>  1 light        A_V1       protein_Id    10
#>  2 light        A_V2       protein_Id    10
#>  3 light        A_V3       protein_Id    10
#>  4 light        A_V4       protein_Id    10
#>  5 light        B_V1       protein_Id     8
#>  6 light        B_V2       protein_Id     9
#>  7 light        B_V3       protein_Id    10
#>  8 light        B_V4       protein_Id    10
#>  9 light        Ctrl_V1    protein_Id    10
#> 10 light        Ctrl_V2    protein_Id    10
#> # ℹ 14 more rows
…
