Summarizes the intensities within hierarchy — intensity_summary_by_hkeys • prolfqua
…
    Examples

bb <- prolfqua_data('data_ionstar')$filtered()
#> Column added : nr_peptide_Id_IN_protein_Id
stopifnot(nrow(bb$data) == 25780)
config <- bb$config$clone(deep = TRUE)
data <- bb$data
x <- intensity_summary_by_hkeys(data, config, func = medpolishPly)
#> starting aggregation
#> Warning: medpolish() did not converge in 10 iterations
#> Warning: medpolish() did not converge in 10 iterations

res <- x("unnest")
x("unnest")$data |> dplyr::select(config$table$hierarchyKeys()[1] , "medpolish")
#> # A tibble: 3,260 × 2
#>    protein_Id                       medpolish
#>    <chr>                                <dbl>
#>  1 sp|P21589|5NTD_HUMAN~1527~P21589 53281919.
#>  2 sp|P21589|5NTD_HUMAN~1527~P21589 53108622.
#>  3 sp|P21589|5NTD_HUMAN~1527~P21589 51768575 
#>  4 sp|P21589|5NTD_HUMAN~1527~P21589 48923212.
#>  5 sp|P21589|5NTD_HUMAN~1527~P21589 46757962.
#>  6 sp|P21589|5NTD_HUMAN~1527~P21589 43139562.
#>  7 sp|P21589|5NTD_HUMAN~1527~P21589 49301991.
#>  8 sp|P21589|5NTD_HUMAN~1527~P21589 46173388.
#>  9 sp|P21589|5NTD_HUMAN~1527~P21589 47789438.
#> 10 sp|P21589|5NTD_HUMAN~1527~P21589 61505569.
#> # … with 3,250 more rows
#> # ℹ Use `print(n = ...)` to see more rows
config <- bb$config$clone(deep = TRUE)
config$table$hierarchyDepth <- 1
x <- intensity_summary_by_hkeys(data, config, func = medpolishPly)
#> starting aggregation
#> Warning: medpolish() did not converge in 10 iterations
#> Warning: medpolish() did not converge in 10 iterations

x("unnest")$data
#> # A tibble: 3,260 × 7
#>    protein_Id                     sampl…¹ dilut…² run_Id raw.f…³ isotope medpo…⁴
#>    <chr>                          <chr>   <chr>   <chr>  <chr>   <chr>     <dbl>
#>  1 sp|P21589|5NTD_HUMAN~1527~P21… b~02    b       02     b03_02… light    5.33e7
#>  2 sp|P21589|5NTD_HUMAN~1527~P21… c~03    c       03     b03_03… light    5.31e7
#>  3 sp|P21589|5NTD_HUMAN~1527~P21… d~04    d       04     b03_04… light    5.18e7
#>  4 sp|P21589|5NTD_HUMAN~1527~P21… e~05    e       05     b03_05… light    4.89e7
#>  5 sp|P21589|5NTD_HUMAN~1527~P21… e~06    e       06     b03_06… light    4.68e7
#>  6 sp|P21589|5NTD_HUMAN~1527~P21… d~07    d       07     b03_07… light    4.31e7
#>  7 sp|P21589|5NTD_HUMAN~1527~P21… c~08    c       08     b03_08… light    4.93e7
#>  8 sp|P21589|5NTD_HUMAN~1527~P21… b~09    b       09     b03_09… light    4.62e7
#>  9 sp|P21589|5NTD_HUMAN~1527~P21… a~10    a       10     b03_10… light    4.78e7
#> 10 sp|P21589|5NTD_HUMAN~1527~P21… a~11    a       11     b03_11… light    6.15e7
#> # … with 3,250 more rows, and abbreviated variable names ¹​sampleName,
#> #   ²​dilution., ³​raw.file, ⁴​medpolish
#> # ℹ Use `print(n = ...)` to see more rows
…
