compute missingness statistics per hierarchy and factor level — interaction_missing_stats • prolfqua
…
tmp <- interaction_missing_stats(xx, configur,
 factors= character(),
  hierarchy = configur$table$hierarchyKeys()[1])$data

#> completing cases
stopifnot(nrow(tmp) == 162)

tmp <- interaction_missing_stats(xx, configur,
  hierarchy = configur$table$hierarchyKeys()[1])$data

#> completing cases
stopifnot(sum(is.na(tmp$nrMeasured))==0)
tmp

#> # A tibble: 810 x 8
#>    dilution. protein_Id isotope nrReplicates nrNAs meanArea medianArea
#>    <chr>     <chr>      <chr>          <int> <int>    <dbl>      <dbl>
#>  1 a         CON__P010~ light              4     0   1.32e7   13208600
#>  2 a         CON__P027~ light            132     6   5.62e8  291950000
#>  3 a         CON__P349~ light             52     3   2.28e8  178770000
#>  4 a         CON__Q281~ light             16     3   4.69e7   11440000
#>  5 a         CON__Q3SZ~ light             24     3   8.20e7   76371000
#>  6 a         sp|L0R819~ light              4     0   1.26e7   11955100
#>  7 a         sp|O00148~ light             44     6   1.68e8   77951000
#>  8 a         sp|O14548~ light              8     1   1.59e7   12380000
#>  9 a         sp|O14745~ light             32     7   2.88e7   31171000
#> 10 a         sp|O15145~ light             12     4   1.55e8  140965000
#> # ... with 800 more rows, and 1 more variable: nrMeasured <int>

interaction_missing_stats(xx, configur, factors = NULL)

#> completing cases
#> $data
#> # A tibble: 1,108 x 8
#>    protein_Id peptide_Id isotope nrReplicates nrNAs meanArea medianArea
#>    <chr>      <chr>      <chr>          <int> <int>    <dbl>      <dbl>
#>  1 CON__P010~ ILSLAQDQV~ light             20     0   1.08e7    8964750
#>  2 CON__P027~ AEFVEVTK   light             20     0   4.78e8  471185000
#>  3 CON__P027~ DDPHACYST~ light             20     0   1.99e8  196000000
#>  4 CON__P027~ DDPHACYST~ light             20     0   3.99e7   41345500
#>  5 CON__P027~ ECCHGDLLE~ light             20     0   1.17e7   11629000
#>  6 CON__P027~ ETYGDMADC~ light             20     0   1.90e7   19185500
#>  7 CON__P027~ EYEATLEEC~ light             20     0   2.18e7   22858500
#>  8 CON__P027~ FKDLGEEHFK light             20     0   1.12e9 1075575000
#>  9 CON__P027~ HLVDEPQNL~ light             20     0   2.05e9 2079250000
#> 10 CON__P027~ HPEYAVSVL~ light             20     0   5.64e7   56165000
#> # ... with 1,098 more rows, and 1 more variable: nrMeasured <int>
…
