LFQData R6 class — LFQData • prolfqua
…
#> 10 b03_08_150304_human_ecoli_c_3ul_3um_column_95_hc~ c~08       c         08    
#> 11 b03_13_150304_human_ecoli_c_3ul_3um_column_95_hc~ c~13       c         13    
#> 12 b03_18_150304_human_ecoli_c_3ul_3um_column_95_hc~ c~18       c         18    
#> 13 b03_04_150304_human_ecoli_d_3ul_3um_column_95_hc~ d~04       d         04    
#> 14 b03_07_150304_human_ecoli_d_3ul_3um_column_95_hc~ d~07       d         07    
#> 15 b03_14_150304_human_ecoli_d_3ul_3um_column_95_hc~ d~14       d         14    
#> 16 b03_17_150304_human_ecoli_d_3ul_3um_column_95_hc~ d~17       d         17    
#> 17 b03_05_150304_human_ecoli_e_3ul_3um_column_95_hc~ e~05       e         05    
#> 18 b03_06_150304_human_ecoli_e_3ul_3um_column_95_hc~ e~06       e         06    
#> 19 b03_15_150304_human_ecoli_e_3ul_3um_column_95_hc~ e~15       e         15    
#> 20 b03_16_150304_human_ecoli_e_3ul_3um_column_95_hc~ e~16       e         16    
stopifnot(lfqdata$is_transformed()==FALSE)
lfqdata$summarize_hierarchy()

#> # A tibble: 62 x 3
#>    protein_Id                       isotope_n peptide_Id_n
#>    <chr>                                <int>        <int>
#>  1 CON__P02769~18~NA                        1           34
#>  2 CON__P34955~32~NA                        1           13
#>  3 CON__Q3SZR3~50~NA                        1            7
#>  4 sp|O95373|IPO7_HUMAN~600~O95373          1           26
#>  5 sp|P02924|ARAF_ECOLI~705~P02924          1            6
#>  6 sp|P04150|GCR_HUMAN~721~P04150           1            5
#>  7 sp|P07602|SAP_HUMAN~814~P07602           1           12
#>  8 sp|P07951|TPM2_HUMAN~829~P07951          1           21
#>  9 sp|P08238|HS90B_HUMAN~837~P08238         1           41
#> 10 sp|P0A6L2|DAPA_ECOLI~914~P0A6L2          1            5
#> # ... with 52 more rows
…
