converts LFQData object to SummarizedExperiment — LFQDataToSummarizedExperiment • prolfqua
…
    Examples

istar <- prolfqua_data('data_ionstar')
istar$config <- old2new(istar$config)
data <- istar$data |> dplyr::filter(protein_Id %in% sample(protein_Id, 100))
lfqdata <- LFQData$new(data, istar$config)
lfqdata$to_wide()
#> $data
#> # A tibble: 715 × 22
#>    protein_Id    pepti…¹  `a~10`  `a~11`  `a~20`  `a~21`  `b~02`  `b~09`  `b~12`
#>    <chr>         <chr>     <dbl>   <dbl>   <dbl>   <dbl>   <dbl>   <dbl>   <dbl>
#>  1 CON__P01030~… AELADQ… NA       7.98e6 NA      NA      NA      NA      NA     
#>  2 CON__P01030~… ILSLAQ…  9.10e6  8.73e6  1.76e7  1.73e7  9.55e6  6.99e6  2.20e7
#>  3 CON__P01030~… LLLFSP…  6.21e6  1.07e7  6.63e6  5.05e6  5.83e6  7.39e6  6.83e6
#>  4 CON__P34955~… AALTID…  4.87e7  5.13e7  5.59e7  5.10e7  4.73e7  4.99e7  4.70e7
#>  5 CON__P34955~… DFHVDE…  1.98e8  2.54e8  2.27e8  2.20e8  2.05e8  1.85e8  2.21e8
#>  6 CON__P34955~… GKWEKP…  5.69e7  1.34e8  1.41e8  1.26e8  7.64e7  5.54e7  1.36e8
#>  7 CON__P34955~… HTTERD…  1.21e8  7.99e7  1.79e8  2.39e8  9.97e7  1.76e8  1.02e8
#>  8 CON__P34955~… KYASSA…  8.02e7  6.31e7  1.05e8  1.21e8  8.99e7  7.02e7  7.29e7
#>  9 CON__P34955~… LGMFDL… NA      NA       9.76e6 NA      NA      NA       8.23e6
#> 10 CON__P34955~… LQQLED…  3.10e8  4.70e8  4.64e8  3.77e8  3.67e8  3.27e8  4.16e8
#> # … with 705 more rows, 13 more variables: `b~19` <dbl>, `c~03` <dbl>,
#> #   `c~08` <dbl>, `c~13` <dbl>, `c~18` <dbl>, `d~04` <dbl>, `d~07` <dbl>,
#> #   `d~14` <dbl>, `d~17` <dbl>, `e~05` <dbl>, `e~06` <dbl>, `e~15` <dbl>,
#> #   `e~16` <dbl>, and abbreviated variable name ¹​peptide_Id
…
#>  9 c~03       c         03    
#> 10 c~08       c         08    
#> 11 c~13       c         13    
#> 12 c~18       c         18    
#> 13 d~04       d         04    
#> 14 d~07       d         07    
#> 15 d~14       d         14    
#> 16 d~17       d         17    
#> 17 e~05       e         05    
#> 18 e~06       e         06    
#> 19 e~15       e         15    
#> 20 e~16       e         16    
#> 
#> $rowdata
#> # A tibble: 715 × 2
#>    protein_Id        peptide_Id      
#>    <chr>             <chr>           
#>  1 CON__P01030~9~NA  AELADQAASWLTR   
#>  2 CON__P01030~9~NA  ILSLAQDQVGGSAEK 
#>  3 CON__P01030~9~NA  LLLFSPSVVR      
#>  4 CON__P34955~32~NA AALTIDEK        
#>  5 CON__P34955~32~NA DFHVDEQTTVK     
#>  6 CON__P34955~32~NA GKWEKPFEMK      
#>  7 CON__P34955~32~NA HTTERDFHVDEQTTVK
#>  8 CON__P34955~32~NA KYASSANLHLPK    
#>  9 CON__P34955~32~NA LGMFDLHYCDK     
#> 10 CON__P34955~32~NA LQQLEDKLNNELLAK 
#> # … with 705 more rows
…
