Summarize LFQData — LFQDataSummariser • prolfqua
…
#>  8 light   b~19               60        654
#>  9 light   c~03               62        685
#> 10 light   c~08               63        672
#> 11 light   c~13               62        667
#> 12 light   c~18               62        672
#> 13 light   d~04               63        688
#> 14 light   d~07               64        685
#> 15 light   d~14               61        674
#> 16 light   d~17               63        681
#> 17 light   e~05               61        694
#> 18 light   e~06               63        682
#> 19 light   e~15               61        664
#> 20 light   e~16               63        676
sum$hierarchy_counts_sample("long")
#> # A tibble: 40 x 4
#> # Groups:   isotope [1]
#>    isotope sampleName key           nr
#>    <chr>   <chr>      <chr>      <int>
#>  1 light   a~10       protein_Id    60
#>  2 light   a~11       protein_Id    61
#>  3 light   a~20       protein_Id    60
#>  4 light   a~21       protein_Id    61
#>  5 light   b~02       protein_Id    62
#>  6 light   b~09       protein_Id    64
#>  7 light   b~12       protein_Id    62
#>  8 light   b~19       protein_Id    60
#>  9 light   c~03       protein_Id    62
#> 10 light   c~08       protein_Id    63
#> # ... with 30 more rows
…
sum$interaction_missing_stats()
#> completing cases
#> $data
#> # A tibble: 4,050 x 9
#>    dilution. protein_Id        peptide_Id    isotope nrReplicates nrNAs meanArea
#>    <chr>     <chr>             <chr>         <chr>          <int> <int>    <dbl>
#>  1 a         CON__P02769~18~NA AEFVEVTK      light              4     0   5.28e8
#>  2 a         CON__P02769~18~NA DDPHACYSTVFDK light              4     0   2.18e8
#>  3 a         CON__P02769~18~NA DDPHACYSTVFD~ light              4     0   4.44e7
#>  4 a         CON__P02769~18~NA ECCHGDLLECAD~ light              4     0   1.21e7
#>  5 a         CON__P02769~18~NA ETYGDMADCCEK  light              4     0   2.49e7
#>  6 a         CON__P02769~18~NA EYEATLEECCAK  light              4     0   2.69e7
#>  7 a         CON__P02769~18~NA FKDLGEEHFK    light              4     0   1.27e9
#>  8 a         CON__P02769~18~NA HLVDEPQNLIK   light              4     0   2.20e9
#>  9 a         CON__P02769~18~NA HPEYAVSVLLR   light              4     0   5.44e7
#> 10 a         CON__P02769~18~NA HPYFYAPELLYY~ light              4     0   1.91e8
#> # ... with 4,040 more rows, and 2 more variables: medianArea <dbl>,
#> #   nrMeasured <int>
…
