create interaction column from factors — make_interaction_column • prolfqua
…
config$table$factor_keys()
#> [1] "dilution." "run_Id"   
config$table$factorDepth <- 1
make_interaction_column(analysis,
   config$table$factor_keys_depth())
#> # A tibble: 25,780 × 11
#>    protein_Id            raw.file sampleName dilution. run_Id isotope peptide_Id
#>    <chr>                 <chr>    <chr>      <chr>     <chr>  <chr>   <chr>     
#>  1 sp|P21589|5NTD_HUMAN… b03_02_… b~02       b         02     light   AKGPLASQI…
#>  2 sp|P21589|5NTD_HUMAN… b03_02_… b~02       b         02     light   FPILSANIK 
#>  3 sp|P21589|5NTD_HUMAN… b03_02_… b~02       b         02     light   GAEVAHFMN…
#>  4 sp|P21589|5NTD_HUMAN… b03_02_… b~02       b         02     light   GPLASQISG…
#>  5 sp|P21589|5NTD_HUMAN… b03_02_… b~02       b         02     light   GVDVVVGGH…
#>  6 sp|P21589|5NTD_HUMAN… b03_02_… b~02       b         02     light   HDSGDQDIN…
#>  7 sp|P21589|5NTD_HUMAN… b03_02_… b~02       b         02     light   IIALGHSGF…
#>  8 sp|P21589|5NTD_HUMAN… b03_02_… b~02       b         02     light   IIALGHSGF…
#>  9 sp|P21589|5NTD_HUMAN… b03_02_… b~02       b         02     light   KVPVVQAYA…
#> 10 sp|P21589|5NTD_HUMAN… b03_02_… b~02       b         02     light   TIVYLDGSS…
#> # ℹ 25,770 more rows
#> # ℹ 4 more variables: peptide.intensity <dbl>, pep <dbl>,
#> #   nr_peptide_Id_IN_protein_Id <int>, interaction <fct>
…
