R6 class representing modelling result — Model • prolfqua
…
#> [1] "protein_Id"
mod <- prolfqua::build_model(
 pepIntensity,
 formula_randomPeptide,
 modelName = modelName,
 subject_Id = config$table$hkeysDepth())

#> boundary (singular) fit: see ?isSingular
#> Joining, by = "protein_Id"

mod$modelDF

#> # A tibble: 62 x 9
#> # Groups:   protein_Id [62]
#>    protein_Id data  linear_model exists_lmer isSingular df.residual sigma nrcoef
#>    <chr>      <lis> <list>       <lgl>       <lgl>            <dbl> <dbl>  <int>
#>  1 sp|P21589~ <tib~ <lmrMdLmT>   TRUE        FALSE              276 0.298      5
#>  2 sp|P62857~ <tib~ <lmrMdLmT>   TRUE        FALSE               53 0.695      5
#>  3 sp|Q13838~ <tib~ <lmrMdLmT>   TRUE        FALSE              199 0.305      5
#>  4 sp|Q9Y2W2~ <tib~ <lmrMdLmT>   TRUE        FALSE               55 0.591      5
#>  5 sp|O00148~ <tib~ <lmrMdLmT>   TRUE        FALSE              178 0.338      5
#>  6 sp|P07602~ <tib~ <lmrMdLmT>   TRUE        FALSE              202 0.357      5
#>  7 sp|P25789~ <tib~ <lmrMdLmT>   TRUE        FALSE              142 0.435      5
#>  8 sp|P41252~ <tib~ <lmrMdLmT>   TRUE        FALSE              508 0.299      5
#>  9 sp|P02924~ <tib~ <lmrMdLmT>   TRUE        FALSE               68 0.335      5
#> 10 sp|P50570~ <tib~ <lmrMdLmT>   TRUE        FALSE              230 0.294      5
#> # ... with 52 more rows, and 1 more variable: nrcoeff_not_NA <int>
…
#> [1] "dilution."
mod$get_coefficients()

#> # A tibble: 310 x 9
#> # Groups:   protein_Id [62]
#>    protein_Id       isSingular nrcoef factor  Estimate Std..Error     df t.value
#>    <chr>            <lgl>       <int> <chr>      <dbl>      <dbl>  <dbl>   <dbl>
#>  1 sp|P21589|5NTD_~ FALSE           5 (Inter~   0.883      0.358   15.3    2.47 
#>  2 sp|P21589|5NTD_~ FALSE           5 diluti~   0.0975     0.0559 263.     1.74 
#>  3 sp|P21589|5NTD_~ FALSE           5 diluti~   0.0700     0.0557 263.     1.26 
#>  4 sp|P21589|5NTD_~ FALSE           5 diluti~  -0.0232     0.0564 263.    -0.412
#>  5 sp|P21589|5NTD_~ FALSE           5 diluti~   0.127      0.0557 263.     2.27 
#>  6 sp|P62857|RS28_~ FALSE           5 (Inter~   2.39       1.19     2.09   2.01 
#>  7 sp|P62857|RS28_~ FALSE           5 diluti~  -0.325      0.284   53.0   -1.15 
#>  8 sp|P62857|RS28_~ FALSE           5 diluti~  -0.570      0.284   53.0   -2.01 
#>  9 sp|P62857|RS28_~ FALSE           5 diluti~  -0.0864     0.284   53.0   -0.305
#> 10 sp|P62857|RS28_~ FALSE           5 diluti~  -0.155      0.284   53.0   -0.545
#> # ... with 300 more rows, and 1 more variable: Pr...t.. <dbl>
…
