how many peptides per protein in each sample — nr_B_in_A_per_sample • prolfqua
…
    Examples

library(prolfqua)
library(tidyverse)
bb <- prolfqua::data_ionstar$filtered()

#> Column added : nr_peptide_Id_IN_protein_Id
stopifnot(nrow(bb$data) == 25780)
configur <- bb$config$clone(deep=TRUE)
data <- bb$data

nr_B_in_A_per_sample(data, configur, nested =FALSE)

#> completing cases
#> # A tibble: 3,260 x 7
#>    raw.file            sampleName protein_Id     dilution. isotope nrPep present
#>    <chr>               <chr>      <chr>          <chr>     <chr>   <int>   <dbl>
#>  1 b03_02_150304_huma~ b~02       CON__P01030~9~ b         light       3       2
#>  2 b03_02_150304_huma~ b~02       CON__P02769~1~ b         light      34      33
#>  3 b03_02_150304_huma~ b~02       CON__P34955~3~ b         light      13      12
#>  4 b03_02_150304_huma~ b~02       CON__Q28107~4~ b         light       4       3
#>  5 b03_02_150304_huma~ b~02       CON__Q3SZR3~5~ b         light       7       6
#>  6 b03_02_150304_huma~ b~02       sp|L0R819|ASU~ b         light       2       2
#>  7 b03_02_150304_huma~ b~02       sp|O00148|DX3~ b         light      11       8
#>  8 b03_02_150304_huma~ b~02       sp|O14548|COX~ b         light       2       2
#>  9 b03_02_150304_huma~ b~02       sp|O14745|NHR~ b         light      11       8
#> 10 b03_02_150304_huma~ b~02       sp|O15145|ARP~ b         light       3       2
#> # ... with 3,250 more rows
bb <- prolfqua::data_IonstarProtein_subsetNorm
nr_B_in_A_per_sample(bb$data, bb$config, nested=FALSE)

#> Warning: here is no B in A
#> completing cases
#> # A tibble: 3,260 x 7
#>    raw.file            sampleName protein_Id     dilution. isotope nrPep present
#>    <chr>               <chr>      <chr>          <chr>     <chr>   <int>   <dbl>
#>  1 b03_02_150304_huma~ b~02       CON__P01030~9~ b         light       1       1
#>  2 b03_02_150304_huma~ b~02       CON__P02769~1~ b         light       1       1
#>  3 b03_02_150304_huma~ b~02       CON__P34955~3~ b         light       1       1
#>  4 b03_02_150304_huma~ b~02       CON__Q28107~4~ b         light       1       1
#>  5 b03_02_150304_huma~ b~02       CON__Q3SZR3~5~ b         light       1       1
#>  6 b03_02_150304_huma~ b~02       sp|L0R819|ASU~ b         light       1       1
#>  7 b03_02_150304_huma~ b~02       sp|O00148|DX3~ b         light       1       1
#>  8 b03_02_150304_huma~ b~02       sp|O14548|COX~ b         light       1       1
#>  9 b03_02_150304_huma~ b~02       sp|O14745|NHR~ b         light       1       1
#> 10 b03_02_150304_huma~ b~02       sp|O15145|ARP~ b         light       1       1
#> # ... with 3,250 more rows
…
