simulate peptide level data with two groups — sim_lfq_data • prolfqua
…
N
group size

fc
D - down regulation N - matrix,  U -  regulation

prop
proportion of down (D), up (U) and not regulated (N)

    Examples

res <- sim_lfq_data()
sim_lfq_data(Nprot = 10)
#> # A tibble: 216 × 11
#>    proteinID average_prot_abundance    sd peptideID sample  group  mean     N
#>    <chr>                      <dbl> <dbl> <chr>     <chr>   <chr> <dbl> <dbl>
#>  1 Q1osnH                      24.1     1 qfzmGKoZ  Ctrl_V1 Ctrl      0     4
#>  2 Q1osnH                      24.1     1 qfzmGKoZ  Ctrl_V2 Ctrl      0     4
#>  3 Q1osnH                      24.1     1 qfzmGKoZ  Ctrl_V3 Ctrl      0     4
#>  4 Q1osnH                      24.1     1 qfzmGKoZ  Ctrl_V4 Ctrl      0     4
#>  5 Q1osnH                      24.1     1 qfzmGKoZ  A_V1    A        -2     4
#>  6 Q1osnH                      24.1     1 qfzmGKoZ  A_V2    A        -2     4
#>  7 Q1osnH                      24.1     1 qfzmGKoZ  A_V3    A        -2     4
#>  8 Q1osnH                      24.1     1 qfzmGKoZ  A_V4    A        -2     4
#>  9 Q1osnH                      24.1     1 qfzmGKoZ  B_V1    B         1     4
#> 10 Q1osnH                      24.1     1 qfzmGKoZ  B_V2    B         1     4
#> # ℹ 206 more rows
#> # ℹ 3 more variables: avg_peptide_abd <dbl>, Replicate <chr>, abundance <dbl>

dd <- sim_lfq_data()
dd$abundance <- add_missing(dd$abundance)

sim_lfq_data_config()
#> sample already exists
#> completing cases
#> $data
#> # A tibble: 336 × 7
#>    sample group_ isotopeLabel protein_Id peptide_Id abundance qValue
#>    <chr>  <chr>  <chr>        <chr>      <chr>          <dbl>  <dbl>
#>  1 A_V1   A      light        6VgarK     GAmpDVeE        21.1      0
#>  2 A_V1   A      light        6VgarK     I21Cjby6        20.9      0
#>  3 A_V1   A      light        6VgarK     TlVmDDfm        21.9      0
#>  4 A_V1   A      light        6VgarK     Xv5I0z0s        20.1      0
#>  5 A_V1   A      light        6VgarK     a9Lk8QAB        22.1      0
#>  6 A_V1   A      light        6VgarK     bxAwMEnI        23.0      0
#>  7 A_V1   A      light        6VgarK     hd9HZOua        22.0      0
#>  8 A_V1   A      light        6VgarK     odqSAybh        20.6      0
#>  9 A_V1   A      light        6VgarK     zllOuUes        20.5      0
#> 10 A_V1   A      light        9wVelp     6hYyZYV8        16.2      0
#> # ℹ 326 more rows
#> 
#> $config
#> <AnalysisConfiguration>
#>   Public:
#>     clone: function (deep = FALSE) 
#>     initialize: function (analysisTableAnnotation, analysisParameter = AnalysisParameters$new()) 
#>     parameter: AnalysisParameters, R6
#>     sep: ~
#>     table: AnalysisTableAnnotation, R6
#> 
sim_lfq_data_config(with_missing = FALSE)
#> sample already exists
#> completing cases
#> $data
#> # A tibble: 600 × 7
#>    sample group_ isotopeLabel protein_Id peptide_Id abundance qValue
#>    <chr>  <chr>  <chr>        <chr>      <chr>          <dbl>  <dbl>
#>  1 A_V1   A      light        0h0kgy     04ITLzmL        16.1      0
#>  2 A_V1   A      light        0h0kgy     FjywjgvB        17.1      0
#>  3 A_V1   A      light        0h0kgy     VJ22U82g        16.4      0
#>  4 A_V1   A      light        0h0kgy     Z9C1oDdL        18.2      0
#>  5 A_V1   A      light        0h0kgy     ZdQFVyoF        19.1      0
#>  6 A_V1   A      light        0h0kgy     brLU8QV8        16.2      0
#>  7 A_V1   A      light        0h0kgy     dn2OKUrh        16.3      0
#>  8 A_V1   A      light        0h0kgy     lXDdQvpA        16.3      0
#>  9 A_V1   A      light        DmgDz7     BUDutEux        26.4      0
#> 10 A_V1   A      light        Oj6crh     3LXrYzXs        19.8      0
#> # ℹ 590 more rows
…
