summarize proteins using MASS:rlm — summarizeRobust • LFQService
…
feature <- setdiff(conf$table$hierarchyKeys(),  conf$table$hkeysDepth())
x <- xnested$data[[1]]
bb <- summarizeRobust(x,
 expression = conf$table$getWorkIntensity(),
  feature = feature,
   samples = conf$table$sampleName)

LFQService:::.reestablish_condition(x,bb, conf)

#> # A tibble: 22 x 7
#>    sampleName Time  Replicate.Name  Isotope.Label.Ty~ mean.Area  weights   lmrob
#>    <chr>      <chr> <chr>           <chr>                 <dbl>    <dbl>   <dbl>
#>  1 T8         T8    12_S165049_0923 light             65003322. 8.69e-16  5.74e7
#>  2 T2~1       T2    14_S165045_0919 light             57594616. 1.19e-14  5.55e7
#>  3 T24        T24   17_S165052_0926 light             59057977. 1.88e-14  5.70e7
#>  4 T24~1      T24   18_S165053_0927 light             68507642. 6.75e-16  5.91e7
#>  5 T336~1     T336  19_S165065_0939 light             46615973. 8.89e-16  5.30e7
#>  6 T0~2       T0    2_S165042_0895  light             27748471. 1.03e-16  5.11e7
#>  7 T336~2     T336  22_S165064_0938 light             55510031. 4.52e-14  5.45e7
#>  8 T8~1       T8    23_S165048_0922 light             77592398. 1.82e-16  5.98e7
#>  9 T8~2       T8    24_S165050_0924 light             51750401. 2.75e-15  5.35e7
#> 10 T240       T240  27_S165062_0936 light             31865020. 1.79e-16  4.97e7
#> # ... with 12 more rows
…
