summarize stats output (compute quantiles) — summarize_cv_quantiles • LFQService
…
#> # A tibble: 6 x 10
#>   protein_Id peptide_Id precursor_Id fragment_Id Time      n not_na     sd
#>   <chr>      <chr>      <chr>        <chr>       <chr> <int>  <int>  <dbl>
#> 1 CiRT stan~ ATAGDTHLG~ ATAGDTHLGGE~ ATAGDTHLGG~ T0        3      3 3.86e5
#> 2 CiRT stan~ ATAGDTHLG~ ATAGDTHLGGE~ ATAGDTHLGG~ T168      3      3 1.90e5
#> 3 CiRT stan~ ATAGDTHLG~ ATAGDTHLGGE~ ATAGDTHLGG~ T2        3      3 1.70e6
#> 4 CiRT stan~ ATAGDTHLG~ ATAGDTHLGGE~ ATAGDTHLGG~ T24       3      3 1.01e6
#> 5 CiRT stan~ ATAGDTHLG~ ATAGDTHLGGE~ ATAGDTHLGG~ T240      2      2 8.87e3
#> 6 CiRT stan~ ATAGDTHLG~ ATAGDTHLGGE~ ATAGDTHLGG~ T336      3      3 3.95e5
#> # ... with 2 more variables: mean <dbl>, CV <dbl>
summarize_cv_quantiles(stats_res, config)

#> $long
#> # A tibble: 45 x 3
#> # Groups:   Time [9]
#>    Time  probs quantiles
#>    <chr> <dbl>     <dbl>
#>  1 T0     0.1     41319.
#>  2 T0     0.25   142149.
#>  3 T0     0.5    559038.
#>  4 T0     0.75  2831096.
#>  5 T0     0.9   9215060.
#>  6 T168   0.1     30856.
#>  7 T168   0.25   108373.
#>  8 T168   0.5    415644.
#>  9 T168   0.75  2204116.
#> 10 T168   0.9   6455220.
#> # ... with 35 more rows
#> 
#> $wide
#> # A tibble: 5 x 10
#>   probs      All      T0    T168       T2     T24    T240   T336     T72      T8
#>   <dbl>    <dbl>   <dbl>   <dbl>    <dbl>   <dbl>   <dbl>  <dbl>   <dbl>   <dbl>
#> 1  0.1    5.18e4  4.13e4  3.09e4   4.61e4  2.48e4  7.00e3 3.17e4  5.80e4  6.40e4
#> 2  0.25   2.02e5  1.42e5  1.08e5   1.64e5  9.25e4  2.83e4 1.01e5  2.41e5  2.49e5
#> 3  0.5    8.72e5  5.59e5  4.16e5   6.99e5  3.32e5  1.44e5 4.16e5  8.67e5  9.74e5
#> 4  0.75   4.18e6  2.83e6  2.20e6   3.43e6  1.61e6  8.55e5 2.13e6  4.75e6  3.77e6
#> 5  0.9    1.26e7  9.22e6  6.46e6   1.10e7  5.82e6  3.07e6 8.52e6  1.32e7  1.02e7
#> 
summarize_cv_quantiles(stats_res, config, stats = "CV")

#> $long
#> # A tibble: 45 x 3
#> # Groups:   Time [9]
#>    Time  probs quantiles
#>    <chr> <dbl>     <dbl>
#>  1 T0     0.1      13.0 
#>  2 T0     0.25     20.4 
#>  3 T0     0.5      55.7 
#>  4 T0     0.75     84.4 
#>  5 T0     0.9      98.5 
#>  6 T168   0.1       6.59
#>  7 T168   0.25     13.0 
#>  8 T168   0.5      40.0 
#>  9 T168   0.75     57.4 
#> 10 T168   0.9      66.5 
#> # ... with 35 more rows
…
