Compute fold changes given Contrasts 2 — workflow_missigness_impute_contrasts • LFQService
…
#> [1] "T8"   "T2"   "T24"  "T336" "T0"   "T240" "T72"  "T168"
Contrasts <- c("timeT24-T8" = "TimeT24-TimeT8", "timeT72-T8" = "TimeT72 - TimeT8")
res <- workflow_missigness_impute_contrasts(data, configur, Contrasts)

#> completing cases
#> missigness_impute_factors_interactions : imputed
#> timeT24-T8=TimeT24-TimeT8
#> timeT72-T8=TimeT72 - TimeT8
#> completing cases
#> missigness_impute_factors_interactions : meanArea
#> timeT24-T8=TimeT24-TimeT8
#> timeT72-T8=TimeT72 - TimeT8
res("long", "factors")

#> # A tibble: 296 x 4
#>    protein_Id                contrast   imputed  meanArea
#>    <chr>                     <chr>        <dbl>     <dbl>
#>  1 CiRT standards            TimeT0    6787081   6787081 
#>  2 CiRT standards            TimeT168  9404816.  9404816.
#>  3 CiRT standards            TimeT2   13489637. 13489637.
#>  4 CiRT standards            TimeT24  13447599. 13447599.
#>  5 CiRT standards            TimeT240  5325657   5325657 
#>  6 CiRT standards            TimeT336  8975166   8975166 
#>  7 CiRT standards            TimeT72  13135539  13135539 
#>  8 CiRT standards            TimeT8   12250040. 12250040.
#>  9 iRT-C18 Standard Peptides TimeT0   27204744  32537590 
#> 10 iRT-C18 Standard Peptides TimeT168 25567511. 27522827.
#> # ... with 286 more rows
bb <- res("long", "all")
bb

#> # A tibble: 370 x 4
#>    protein_Id     contrast     imputed  meanArea
#>    <chr>          <chr>          <dbl>     <dbl>
#>  1 CiRT standards TimeT0      6787081   6787081 
#>  2 CiRT standards TimeT168    9404816.  9404816.
#>  3 CiRT standards TimeT2     13489637. 13489637.
#>  4 CiRT standards TimeT24    13447599. 13447599.
#>  5 CiRT standards timeT24-T8  -177589   -177589 
#>  6 CiRT standards TimeT240    5325657   5325657 
#>  7 CiRT standards TimeT336    8975166   8975166 
#>  8 CiRT standards TimeT72    13135539  13135539 
#>  9 CiRT standards timeT72-T8   120517    120517 
#> 10 CiRT standards TimeT8     12250040. 12250040.
#> # ... with 360 more rows
…
