compute pooled variance — pooled_V2 • prolfqua
…
res1 <- summarize_stats(data, config)
#> completing cases
head(res1)
#> # A tibble: 6 × 8
#>   protein_Id       peptide_Id      dilution.     n not_na     sd    var    mean
#>   <chr>            <chr>           <chr>     <int>  <int>  <dbl>  <dbl>   <dbl>
#> 1 CON__P01030~9~NA AELADQAASWLTR   a             4      1 NA     NA      -1.73 
#> 2 CON__P01030~9~NA AELADQAASWLTR   b             4      1 NA     NA      -2.40 
#> 3 CON__P01030~9~NA AELADQAASWLTR   c             4      0 NA     NA     NaN    
#> 4 CON__P01030~9~NA AELADQAASWLTR   d             4      0 NA     NA     NaN    
#> 5 CON__P01030~9~NA AELADQAASWLTR   e             4      2  0.647  0.419  -2.21 
#> 6 CON__P01030~9~NA ILSLAQDQVGGSAEK a             4      4  0.499  0.249  -0.973
poolvar(res1, config)
#> # A tibble: 1,289 × 12
#>    protein_Id       peptide_Id n.groups     n    df     sd    sdT     var   mean
#>    <chr>            <chr>         <int> <int> <int>  <dbl>  <dbl>   <dbl>  <dbl>
#>  1 CON__P01030~9~NA AELADQAAS…        1     2     1 0.647  0.647  0.419   -2.21 
#>  2 CON__P01030~9~NA ILSLAQDQV…        5    20    15 0.449  0.318  0.202   -1.18 
#>  3 CON__P01030~9~NA LLLFSPSVVR        5    20    15 0.297  0.210  0.0879  -1.82 
#>  4 CON__P02769~18~… AEFVEVTK          5    20    15 0.322  0.228  0.104    4.33 
#>  5 CON__P02769~18~… DDPHACYST…        5    20    15 0.0953 0.0674 0.00908  3.10 
#>  6 CON__P02769~18~… DDPHACYST…        5    20    15 0.829  0.586  0.687    0.647
#>  7 CON__P02769~18~… ECCHGDLLE…        5    20    15 0.243  0.172  0.0592  -0.995
#>  8 CON__P02769~18~… ETYGDMADC…        5    20    15 0.404  0.285  0.163   -0.365
#>  9 CON__P02769~18~… EYEATLEEC…        5    20    15 0.942  0.666  0.887   -0.272
#> 10 CON__P02769~18~… FKDLGEEHFK        5    20    15 0.323  0.228  0.104    5.54 
#> # … with 1,279 more rows, and 3 more variables: meanAll <dbl>, not_na <int>,
#> #   dilution. <chr>
…
