Benchmarking normalization, aggregation and models using the Ionstar Dataset • prolfqua
…
Benchmarking

ttd <- prolfqua::ionstar_bench_preprocess(contrdf)
medpol_benchmark <- make_benchmark(ttd$data,
                                   model_description = "med. polish and lm. density",
                                   model_name = "prot_med_lm",
                                   FDRvsFDP = list(list(sc = "FDR", desc = FALSE),
                                                  list(sc = "FDR.moderated", desc = FALSE))
)
medpol_benchmark$data()

## # A tibble: 652 x 22
##    contrast protein_Id     c1     c2 c1_name c2_name  sigma    df estimate
##    <chr>    <chr>       <dbl>  <dbl> <chr>   <chr>    <dbl> <int>    <dbl>
##  1 dilutio~ sp|P11498~ -1.59  -1.57  diluti~ diluti~ 0.228     15 -0.0209 
##  2 dilutio~ sp|P07395~ -2.28  -2.54  diluti~ diluti~ 0.166     10  0.260  
##  3 dilutio~ sp|Q9NZU5~ -0.247 -0.106 diluti~ diluti~ 0.340     14 -0.141  
##  4 dilutio~ sp|O43615~ -0.810 -0.808 diluti~ diluti~ 0.0566    15 -0.00209
##  5 dilutio~ sp|P0AG51~ -0.125 -0.668 diluti~ diluti~ 0.304     15  0.543  
##  6 dilutio~ sp|Q6UWU4~ -2.65  -3.53  diluti~ diluti~ 1.32       2  0.877  
##  7 dilutio~ sp|P62829~  2.40   2.32  diluti~ diluti~ 0.113     15  0.0865 
##  8 dilutio~ sp|Q13185~  1.12   1.16  diluti~ diluti~ 0.0958    15 -0.0391 
##  9 dilutio~ sp|P45973~  0.111  0.238 diluti~ diluti~ 0.275     15 -0.127  
## 10 dilutio~ sp|Q6GMV3~ -0.875 -0.822 diluti~ diluti~ 0.141     15 -0.0528 
## # ... with 642 more rows, and 13 more variables: std.error <dbl>,
## #   statistic <dbl>, p.value <dbl>, conf.low <dbl>, conf.high <dbl>,
## #   isSingular <lgl>, FDR <dbl>, moderated.p.value <dbl>, FDR.moderated <dbl>,
## #   species <chr>, TP <lgl>, scaled.p.value <dbl>,
## #   scaled.moderated.p.value <dbl>
…
Imputation

In order to estimate fold-changes of proteins for which linear models could not be fitted because of an excess of missing measurements, the following procedure is applied: The mean intensity of a peptide over all samples in a condition is computed. For the proteins with no observation in one condition, we imputed the peptide intensities using the mean of the 10% smallest average peptide intensities determined in step one. Then the fold changes between conditions were estimated for each peptide, and the median of the peptide fold change estimates was used to provide a per protein fold change. No p-values were estimated in this case.

contrsimple <- prolfqua::ContrastsSimpleImpute$new(lfqNormSubset, relevantContrasts)

cs <- contrsimple$get_contrasts()
cs <- cs %>% rename(estimate = .data$estimate_median)
ttd <- prolfqua::ionstar_bench_preprocess(cs)
ttd$data

## # A tibble: 652 x 14
##    contrast protein_Id c1_name c2_name     c1     c2     n estimate estimate_mad
##    <chr>    <chr>      <chr>   <chr>    <dbl>  <dbl> <int>    <dbl>        <dbl>
##  1 dilutio~ sp|E9PAV3~ diluti~ diluti~  3.46   3.41      6  -0.0808       0.153 
##  2 dilutio~ sp|O00115~ diluti~ diluti~ -1.34  -1.05      2  -0.284        0.486 
##  3 dilutio~ sp|O14617~ diluti~ diluti~ -1.40  -1.44     10   0.0255       0.311 
##  4 dilutio~ sp|O15127~ diluti~ diluti~ -1.10  -0.959     2  -0.140        0.254 
##  5 dilutio~ sp|O15446~ diluti~ diluti~ -1.17  -1.07      5  -0.148        0.615 
##  6 dilutio~ sp|O43169~ diluti~ diluti~  0.546  1.02      7  -0.0602       0.251 
##  7 dilutio~ sp|O43615~ diluti~ diluti~ -0.775 -0.650    10  -0.120        0.0636
##  8 dilutio~ sp|O43920~ diluti~ diluti~ -0.472 -0.436     2  -0.0360       0.134 
##  9 dilutio~ sp|O60573~ diluti~ diluti~ -1.84  -1.68      5  -0.165        0.767 
## 10 dilutio~ sp|O75886~ diluti~ diluti~ -0.287 -0.113     4  -0.105        0.0763
## # ... with 642 more rows, and 5 more variables: isSingular <lgl>,
## #   statistic <dbl>, p.value <dbl>, species <chr>, TP <lgl>
…
