Comparing Two Groups with prolfqua • prolfqua
…
Loading protein abundances from MaxQuant proteinGroups.txt

library(prolfqua)

Specify the path to the MaxQuant proteinGroups.txt file.
The function tidyMQ_ProteinGroups will read the
proteinGroups.txt file and convert it into a tidy table

xx <- prolfqua::sim_lfq_data_protein_config(Nprot = 100)
xx

## $data
## # A tibble: 1,200 × 8
##    sample sampleName group_ isotopeLabel protein_Id abundance qValue nr_peptides
##    <chr>  <chr>      <chr>  <chr>        <chr>          <dbl>  <dbl>       <dbl>
##  1 A_V1   A_V1       A      light        0EfVhX~39…      20.4      0           2
##  2 A_V1   A_V1       A      light        0m5WN4~60…      16.4      0           7
##  3 A_V1   A_V1       A      light        0YSKpy~28…      18.2      0           2
##  4 A_V1   A_V1       A      light        3QLHfm~89…      23.0      0           1
##  5 A_V1   A_V1       A      light        3QYop0~75…      23.1      0           7
##  6 A_V1   A_V1       A      light        76k03k~70…      25.5      0           4
##  7 A_V1   A_V1       A      light        7cbcrd~73…      27.1      0           2
##  8 A_V1   A_V1       A      light        7QuTub~18…      18.4      0           4
##  9 A_V1   A_V1       A      light        7soopj~53…      19.5      0           2
## 10 A_V1   A_V1       A      light        7zeekV~71…      20.6      0           8
## # ℹ 1,190 more rows
## 
## $config
## <AnalysisConfiguration>
##   Public:
##     clone: function (deep = FALSE) 
##     initialize: function (analysisTableAnnotation, analysisParameter = AnalysisParameters$new()) 
##     parameter: AnalysisParameters, R6
##     sep: ~
…
