QC and Sample Size Estimation • prolfqua
…
Getting statistics for each protein.

stats$stats()

## # A tibble: 4,512 x 6
##    protein_Id                              condition_     n not_na     sd   mean
##    <chr>                                   <chr>      <int>  <int>  <dbl>  <dbl>
##  1 CON__A2A4G1                             Ethanol        3      3  0.132 -2.95 
##  2 CON__P02533;zz|ZZ_FGCZCont0187|;zz|ZZ_~ Ethanol        3      3  2.37  -1.24 
##  3 CON__P02662;zz|ZZ_FGCZCont0123|         Ethanol        1      1 NA     -1.77 
##  4 CON__P07477                             Ethanol        5      5  2.01   5.35 
##  5 CON__P13645;zz|ZZ_FGCZCont0160|;zz|ZZ_~ Ethanol        5      5  0.907  3.22 
##  6 CON__Q32MB2                             Ethanol        2      2  0.181  0.126
##  7 CON__Q86YZ3                             Ethanol        4      4  1.64  -2.64 
##  8 CON__Q8VED5;CON__Q5XKE5                 Ethanol        1      1 NA     -2.72 
##  9 REV__sp|P07285|TRPD_YEAST               Ethanol        4      4  3.68   2.61 
## 10 REV__sp|P26637|SYLC_YEAST               Ethanol        2      2  1.89   0.536
## # ... with 4,502 more rows
…
