Proprocessing the Ionstar dataset • LFQService
…
dataIonstarProtein_subsetNorm <- list(
  data = lfqAggregator$lfq_agg$data,
  config = lfqAggregator$lfq_agg$config
)

dataIonstarProtein_subsetNorm$data

## # A tibble: 3,260 x 7
##    protein_Id     sampleName dilution. run_Id raw.file         isotope medpolish
##    <chr>          <chr>      <chr>     <chr>  <chr>            <chr>       <dbl>
##  1 sp|P21589|5NT~ b~02       b         02     b03_02_150304_h~ light        1.20
##  2 sp|P21589|5NT~ c~03       c         03     b03_03_150304_h~ light        1.21
##  3 sp|P21589|5NT~ d~04       d         04     b03_04_150304_h~ light        1.24
##  4 sp|P21589|5NT~ e~05       e         05     b03_05_150304_h~ light        1.27
##  5 sp|P21589|5NT~ e~06       e         06     b03_06_150304_h~ light        1.29
##  6 sp|P21589|5NT~ d~07       d         07     b03_07_150304_h~ light        1.13
##  7 sp|P21589|5NT~ c~08       c         08     b03_08_150304_h~ light        1.18
##  8 sp|P21589|5NT~ b~09       b         09     b03_09_150304_h~ light        1.28
##  9 sp|P21589|5NT~ a~10       a         10     b03_10_150304_h~ light        1.21
## 10 sp|P21589|5NT~ a~11       a         11     b03_11_150304_h~ light        1.18
## # ... with 3,250 more rows
…
