Supplement - Data preprocessing for PRM • prolfqua
…
xx <- unique(resData$Time)
xxord <- order(as.numeric(gsub("T", "", xx)))

resData$Time <-
  parse_factor(resData$Time, unique(resData$Time)[xxord])
resData$Area[resData$Area == 0] <- NA

Generate overview plots

proteinIDsymbol <- sym(names(skylineconfig$table$hierarchy)[1])
xnested <-
  resData %>% dplyr::group_by(UQ(proteinIDsymbol)) %>% tidyr::nest()
xnested

## # A tibble: 37 x 2
## # Groups:   protein_Id [37]
##    protein_Id                data                
##    <chr>                     <list>              
##  1 CiRT standards            <tibble [2,288 x 9]>
##  2 iRT-C18 Standard Peptides <tibble [2,068 x 9]>
##  3 sp|O60656|UD19_HUMAN      <tibble [176 x 9]>  
##  4 sp|P02768|ALBU_HUMAN      <tibble [682 x 9]>  
##  5 sp|P05177|CP1A2_HUMAN     <tibble [506 x 9]>  
##  6 sp|P09488|GSTM1_HUMAN     <tibble [330 x 9]>  
##  7 sp|P10632|CP2C8_HUMAN     <tibble [660 x 9]>  
##  8 sp|P11509|CP2A6_HUMAN     <tibble [352 x 9]>  
##  9 sp|P11712|CP2C9_HUMAN     <tibble [352 x 9]>  
## 10 sp|P16662|UD2B7_HUMAN     <tibble [704 x 9]>  
## # ... with 27 more rows
…
