Supplement - Filter precursors or fragments based on correlation • prolfqua
…
#plot_hierarchies_line(xnested$data[[4]], xnested$protein_Id[4],config)
# nest protein quants.
figs3 <- xnested %>% dplyr::mutate(plotlog = map2(data, UQ(sym(config$table$hierarchyKeys()[1])),plot_hierarchies_line, config))
figs3

## # A tibble: 37 x 3
## # Groups:   protein_Id [37]
##    protein_Id                 data                  plotlog
##    <chr>                      <list>                <list> 
##  1 A0A075B6P5;P01615          <tibble [270 x 22]>   <gg>   
##  2 A0A087WSY6;P01624          <tibble [270 x 22]>   <gg>   
##  3 A0A0B4J1V0                 <tibble [450 x 22]>   <gg>   
##  4 A0A0C4DH25                 <tibble [450 x 22]>   <gg>   
##  5 A0A0J9YXX1                 <tibble [180 x 22]>   <gg>   
##  6 FGCZCont0141_P69906;P69905 <tibble [945 x 22]>   <gg>   
##  7 FGCZCont0174_P68873;P68871 <tibble [675 x 22]>   <gg>   
##  8 P00751                     <tibble [1,215 x 22]> <gg>   
##  9 P01008                     <tibble [1,485 x 22]> <gg>   
## 10 P01009                     <tibble [3,465 x 22]> <gg>   
## # ... with 27 more rows
…
nrPep <- qvalFiltImputed %>% 
  select_at(c(config$table$hierarchyKeys()[1], "nr_peptide_Id_IN_protein_Id")) %>% 
  distinct()

nrPep

## # A tibble: 71 x 2
##    protein_Id                 nr_peptide_Id_IN_protein_Id
##    <chr>                                            <int>
##  1 A0A075B6P5;P01615                                    3
##  2 A0A087WSY6;P01624                                    3
##  3 A0A0B4J1V0                                           6
##  4 A0A0C4DH25                                           9
##  5 A0A0J9YXX1                                           3
##  6 A0A0J9YXX1                                          NA
##  7 FGCZCont0141_P69906;P69905                           8
##  8 FGCZCont0141_P69906;P69905                          NA
##  9 FGCZCont0174_P68873;P68871                          10
## 10 FGCZCont0174_P68873;P68871                          NA
## # ... with 61 more rows
…
